Huawei phone,best phone,Electronics,2014/10/4,N/A,OK,1369,1219,/Users/kkkevinxx/Downloads/Pictures/10.jpg
Bed,full size,Furniture,2014/2/25,N/A,OK,1829,1679,/Users/kkkevinxx/Downloads/Pictures/39.jpg
Organizer,organize your home,Furniture,2014/11/10,N/A,OK,1062,912,/Users/kkkevinxx/Downloads/Pictures/41.jpg
Desk,full size,Furniture,2015/3/8,N/A,OK,709,559,/Users/kkkevinxx/Downloads/Pictures/12.jpg
Bed,full size,Furniture,2014/5/4,N/A,OK,497,347,/Users/kkkevinxx/Downloads/Pictures/24.jpg
Organizer,organize your home,Furniture,2015/8/19,N/A,OK,623,473,/Users/kkkevinxx/Downloads/Pictures/23.jpg
Facial cleaser,give you nice touch skin,DailyUse,2015/7/11,N/A,OK,1533,1383,/Users/kkkevinxx/Downloads/Pictures/10.jpg
Organizer,organize your home,Furniture,2014/8/28,N/A,OK,1009,859,/Users/kkkevinxx/Downloads/Pictures/32.jpg
Coat,stylish coat from China,Clothing,2015/9/7,N/A,OK,1032,882,/Users/kkkevinxx/Downloads/Pictures/40.jpg
Humidifier,work well,Electronics,2015/11/6,N/A,OK,718,568,/Users/kkkevinxx/Downloads/Pictures/22.jpg
Floor Lamp,good looking,Furniture,2014/4/19,N/A,OK,764,614,/Users/kkkevinxx/Downloads/Pictures/21.jpg
Bed,full size,Furniture,2015/1/28,N/A,OK,2171,2021,/Users/kkkevinxx/Downloads/Pictures/8.jpg
Mattress,bouncy,Furniture,2014/2/6,N/A,OK,2031,1881,/Users/kkkevinxx/Downloads/Pictures/17.jpg
Huawei phone,best phone,Electronics,2015/6/27,N/A,OK,2171,2021,/Users/kkkevinxx/Downloads/Pictures/8.jpg
Coat,stylish coat from China,Clothing,2015/7/20,N/A,OK,1356,1206,/Users/kkkevinxx/Downloads/Pictures/32.jpg
Subway Card,semester card,Traffic,2014/6/23,N/A,OK,354,204,/Users/kkkevinxx/Downloads/Pictures/43.jpg
Subway Card,semester card,Traffic,2015/5/22,N/A,OK,794,644,/Users/kkkevinxx/Downloads/Pictures/8.jpg
Coat,stylish coat from China,Clothing,2015/6/27,N/A,OK,575,425,/Users/kkkevinxx/Downloads/Pictures/47.jpg
Desk,full size,Furniture,2015/9/6,N/A,OK,442,292,/Users/kkkevinxx/Downloads/Pictures/2.jpg
Huawei phone,best phone,Electronics,2015/8/21,N/A,OK,879,729,/Users/kkkevinxx/Downloads/Pictures/36.jpg
Desk,full size,Furniture,2015/10/27,N/A,OK,1802,1652,/Users/kkkevinxx/Downloads/Pictures/47.jpg
Earphone,good sound,Electronics,2015/2/28,N/A,OK,1928,1778,/Users/kkkevinxx/Downloads/Pictures/18.jpg
Organizer,organize your home,Furniture,2014/11/8,N/A,OK,595,445,/Users/kkkevinxx/Downloads/Pictures/5.jpg
Humidifier,work well,Electronics,2015/2/26,N/A,OK,1928,1778,/Users/kkkevinxx/Downloads/Pictures/35.jpg
Mattress,bouncy,Furniture,2014/11/19,N/A,OK,511,361,/Users/kkkevinxx/Downloads/Pictures/2.jpg
Humidifier,work well,Electronics,2015/5/6,N/A,OK,246,96,/Users/kkkevinxx/Downloads/Pictures/47.jpg
Desk,full size,Furniture,2015/7/29,N/A,OK,1248,1098,/Users/kkkevinxx/Downloads/Pictures/47.jpg
Floor Lamp,good looking,Furniture,2015/7/4,N/A,OK,1946,1796,/Users/kkkevinxx/Downloads/Pictures/17.jpg
Floor Lamp,good looking,Furniture,2015/2/7,N/A,OK,942,792,/Users/kkkevinxx/Downloads/Pictures/36.jpg
Floor Lamp,good looking,Furniture,2014/8/6,N/A,OK,1457,1307,/Users/kkkevinxx/Downloads/Pictures/46.jpg
Desk,full size,Furniture,2014/6/26,N/A,OK,811,661,/Users/kkkevinxx/Downloads/Pictures/14.jpg
Chair,comfortable,Furniture,2015/11/4,N/A,OK,1552,1402,/Users/kkkevinxx/Downloads/Pictures/32.jpg
Bed,full size,Furniture,2015/4/1,N/A,OK,495,345,/Users/kkkevinxx/Downloads/Pictures/40.jpg
Desk,full size,Furniture,2015/10/29,N/A,OK,1643,1493,/Users/kkkevinxx/Downloads/Pictures/48.jpg
Coat,stylish coat from China,Clothing,2015/9/7,N/A,OK,2155,2005,/Users/kkkevinxx/Downloads/Pictures/50.jpg
Floor Lamp,good looking,Furniture,2015/5/3,N/A,OK,1247,1097,/Users/kkkevinxx/Downloads/Pictures/15.jpg
BMW vihicle,second hand,Traffic,2014/2/26,N/A,OK,1907,1757,/Users/kkkevinxx/Downloads/Pictures/28.jpg
Frozen Dumplings,home flavor,Food,2014/11/27,N/A,OK,2179,2029,/Users/kkkevinxx/Downloads/Pictures/46.jpg
Frozen Dumplings,home flavor,Food,2014/11/27,N/A,OK,659,509,/Users/kkkevinxx/Downloads/Pictures/3.jpg
Floor Lamp,good looking,Furniture,2014/11/25,N/A,OK,750,600,/Users/kkkevinxx/Downloads/Pictures/42.jpg
Mattress,bouncy,Furniture,2014/11/8,N/A,OK,794,644,/Users/kkkevinxx/Downloads/Pictures/42.jpg
Mattress,bouncy,Furniture,2015/8/3,N/A,OK,832,682,/Users/kkkevinxx/Downloads/Pictures/6.jpg
Bed,full size,Furniture,2014/1/7,N/A,OK,484,334,/Users/kkkevinxx/Downloads/Pictures/45.jpg
Subway Card,semester card,Traffic,2014/10/27,N/A,OK,243,93,/Users/kkkevinxx/Downloads/Pictures/49.jpg
Coat,stylish coat from China,Clothing,2015/3/23,N/A,OK,1708,1558,/Users/kkkevinxx/Downloads/Pictures/38.jpg
Leggings,makes your leg looks ever slimmer,Clothing,2015/7/14,N/A,OK,360,210,/Users/kkkevinxx/Downloads/Pictures/5.jpg
Humidifier,work well,Electronics,2014/3/6,N/A,OK,1256,1106,/Users/kkkevinxx/Downloads/Pictures/6.jpg
Mattress,bouncy,Furniture,2015/1/23,N/A,OK,342,192,/Users/kkkevinxx/Downloads/Pictures/47.jpg
Floor Lamp,good looking,Furniture,2015/3/20,N/A,OK,2125,1975,/Users/kkkevinxx/Downloads/Pictures/25.jpg
Humidifier,work well,Electronics,2015/7/16,N/A,OK,677,527,/Users/kkkevinxx/Downloads/Pictures/3.jpg
Organizer,organize your home,Furniture,2015/2/27,N/A,OK,1853,1703,/Users/kkkevinxx/Downloads/Pictures/39.jpg
Bed,full size,Furniture,2014/6/10,N/A,OK,2098,1948,/Users/kkkevinxx/Downloads/Pictures/15.jpg
Coat,stylish coat from China,Clothing,2014/4/26,N/A,OK,309,159,/Users/kkkevinxx/Downloads/Pictures/21.jpg
Humidifier,work well,Electronics,2015/8/13,N/A,OK,1143,993,/Users/kkkevinxx/Downloads/Pictures/5.jpg
Facial cleaser,give you nice touch skin,DailyUse,2014/6/5,N/A,OK,454,304,/Users/kkkevinxx/Downloads/Pictures/16.jpg
Frozen Dumplings,home flavor,Food,2014/3/26,N/A,OK,829,679,/Users/kkkevinxx/Downloads/Pictures/19.jpg
Desk,full size,Furniture,2014/10/7,N/A,OK,1475,1325,/Users/kkkevinxx/Downloads/Pictures/46.jpg
Facial cleaser,give you nice touch skin,DailyUse,2015/6/12,N/A,OK,2012,1862,/Users/kkkevinxx/Downloads/Pictures/36.jpg
Mattress,bouncy,Furniture,2014/9/9,N/A,OK,539,389,/Users/kkkevinxx/Downloads/Pictures/39.jpg
Humidifier,work well,Electronics,2014/9/25,N/A,OK,2085,1935,/Users/kkkevinxx/Downloads/Pictures/34.jpg
BMW vihicle,second hand,Traffic,2014/9/16,N/A,OK,1178,1028,/Users/kkkevinxx/Downloads/Pictures/26.jpg
Earphone,good sound,Electronics,2015/8/27,N/A,OK,623,473,/Users/kkkevinxx/Downloads/Pictures/47.jpg
Huawei phone,best phone,Electronics,2014/3/11,N/A,OK,1034,884,/Users/kkkevinxx/Downloads/Pictures/9.jpg
Subway Card,semester card,Traffic,2014/8/1,N/A,OK,566,416,/Users/kkkevinxx/Downloads/Pictures/14.jpg
Desk,full size,Furniture,2015/7/27,N/A,OK,1365,1215,/Users/kkkevinxx/Downloads/Pictures/5.jpg
Desk,full size,Furniture,2015/2/16,N/A,OK,357,207,/Users/kkkevinxx/Downloads/Pictures/21.jpg
Noodles Sauce,Chinese flavor sauces,Food,2015/8/11,N/A,OK,1248,1098,/Users/kkkevinxx/Downloads/Pictures/36.jpg
Organizer,organize your home,Furniture,2014/8/23,N/A,OK,1275,1125,/Users/kkkevinxx/Downloads/Pictures/1.jpg
iphone,nice phone,Electronics,2015/3/20,N/A,OK,1011,861,/Users/kkkevinxx/Downloads/Pictures/11.jpg
Bed,full size,Furniture,2014/9/19,N/A,OK,949,799,/Users/kkkevinxx/Downloads/Pictures/19.jpg
Floor Lamp,good looking,Furniture,2015/2/19,N/A,OK,1816,1666,/Users/kkkevinxx/Downloads/Pictures/5.jpg
iphone,nice phone,Electronics,2014/2/15,N/A,OK,728,578,/Users/kkkevinxx/Downloads/Pictures/9.jpg
Leggings,makes your leg looks ever slimmer,Clothing,2015/2/2,N/A,OK,1779,1629,/Users/kkkevinxx/Downloads/Pictures/24.jpg
Bed,full size,Furniture,2014/1/21,N/A,OK,1171,1021,/Users/kkkevinxx/Downloads/Pictures/43.jpg
iphone,nice phone,Electronics,2015/5/23,N/A,OK,1306,1156,/Users/kkkevinxx/Downloads/Pictures/31.jpg
iphone,nice phone,Electronics,2015/11/26,N/A,OK,521,371,/Users/kkkevinxx/Downloads/Pictures/38.jpg
Coat,stylish coat from China,Clothing,2014/7/7,N/A,OK,1621,1471,/Users/kkkevinxx/Downloads/Pictures/17.jpg
Hair dryer,fast dry experience,Electronics,2015/10/9,N/A,OK,1479,1329,/Users/kkkevinxx/Downloads/Pictures/47.jpg
Bed,full size,Furniture,2015/2/9,N/A,OK,675,525,/Users/kkkevinxx/Downloads/Pictures/2.jpg
Mattress,bouncy,Furniture,2014/10/18,N/A,OK,2057,1907,/Users/kkkevinxx/Downloads/Pictures/3.jpg
Bicycle,really smooth ride experience,Traffic,2015/9/5,N/A,OK,1760,1610,/Users/kkkevinxx/Downloads/Pictures/21.jpg
Desk,full size,Furniture,2014/4/4,N/A,OK,646,496,/Users/kkkevinxx/Downloads/Pictures/19.jpg
Coat,stylish coat from China,Clothing,2015/7/3,N/A,OK,260,110,/Users/kkkevinxx/Downloads/Pictures/10.jpg
Organizer,organize your home,Furniture,2014/2/25,N/A,OK,1734,1584,/Users/kkkevinxx/Downloads/Pictures/18.jpg
Coat,stylish coat from China,Clothing,2014/6/10,N/A,OK,982,832,/Users/kkkevinxx/Downloads/Pictures/25.jpg
Floor Lamp,good looking,Furniture,2014/6/14,N/A,OK,963,813,/Users/kkkevinxx/Downloads/Pictures/1.jpg
Desk,full size,Furniture,2014/9/6,N/A,OK,475,325,/Users/kkkevinxx/Downloads/Pictures/20.jpg
Organizer,organize your home,Furniture,2015/10/21,N/A,OK,408,258,/Users/kkkevinxx/Downloads/Pictures/32.jpg
BMW vihicle,second hand,Traffic,2014/7/29,N/A,OK,1660,1510,/Users/kkkevinxx/Downloads/Pictures/19.jpg
Leggings,makes your leg looks ever slimmer,Clothing,2015/4/24,N/A,OK,1039,889,/Users/kkkevinxx/Downloads/Pictures/10.jpg
Coat,stylish coat from China,Clothing,2014/7/28,N/A,OK,1898,1748,/Users/kkkevinxx/Downloads/Pictures/44.jpg
Floor Lamp,good looking,Furniture,2014/10/29,N/A,OK,1434,1284,/Users/kkkevinxx/Downloads/Pictures/19.jpg
BMW vihicle,second hand,Traffic,2015/11/26,N/A,OK,447,297,/Users/kkkevinxx/Downloads/Pictures/21.jpg
Floor Lamp,good looking,Furniture,2014/6/1,N/A,OK,1772,1622,/Users/kkkevinxx/Downloads/Pictures/25.jpg
Desk,full size,Furniture,2015/4/27,N/A,OK,924,774,/Users/kkkevinxx/Downloads/Pictures/24.jpg
Frozen Dumplings,home flavor,Food,2015/3/15,N/A,OK,2075,1925,/Users/kkkevinxx/Downloads/Pictures/44.jpg
Organizer,organize your home,Furniture,2015/6/25,N/A,OK,1067,917,/Users/kkkevinxx/Downloads/Pictures/15.jpg
iphone,nice phone,Electronics,2014/8/18,N/A,OK,1541,1391,/Users/kkkevinxx/Downloads/Pictures/29.jpg
Floor Lamp,good looking,Furniture,2014/7/16,N/A,OK,1675,1525,/Users/kkkevinxx/Downloads/Pictures/16.jpg
Organizer,organize your home,Furniture,2014/10/22,N/A,OK,1609,1459,/Users/kkkevinxx/Downloads/Pictures/46.jpg
Coat,stylish coat from China,Clothing,2015/2/27,N/A,OK,1126,976,/Users/kkkevinxx/Downloads/Pictures/50.jpg
Organizer,organize your home,Furniture,2015/2/6,N/A,OK,1162,1012,/Users/kkkevinxx/Downloads/Pictures/50.jpg
Scarf,warm you in the cold night,Clothing,2014/9/12,N/A,OK,1329,1179,/Users/kkkevinxx/Downloads/Pictures/14.jpg
Floor Lamp,good looking,Furniture,2015/1/1,N/A,OK,1913,1763,/Users/kkkevinxx/Downloads/Pictures/18.jpg
Organizer,organize your home,Furniture,2015/3/11,N/A,OK,1387,1237,/Users/kkkevinxx/Downloads/Pictures/47.jpg
Floor Lamp,good looking,Furniture,2014/11/6,N/A,OK,1689,1539,/Users/kkkevinxx/Downloads/Pictures/45.jpg
Chair,comfortable,Furniture,2014/6/7,N/A,OK,562,412,/Users/kkkevinxx/Downloads/Pictures/6.jpg
Organizer,organize your home,Furniture,2014/2/1,N/A,OK,849,699,/Users/kkkevinxx/Downloads/Pictures/39.jpg
Desk,full size,Furniture,2014/4/3,N/A,OK,424,274,/Users/kkkevinxx/Downloads/Pictures/7.jpg
Desk,full size,Furniture,2015/10/19,N/A,OK,580,430,/Users/kkkevinxx/Downloads/Pictures/26.jpg
BMW vihicle,second hand,Traffic,2014/6/9,N/A,OK,1276,1126,/Users/kkkevinxx/Downloads/Pictures/25.jpg
Mattress,bouncy,Furniture,2014/8/14,N/A,OK,1244,1094,/Users/kkkevinxx/Downloads/Pictures/3.jpg
BMW vihicle,second hand,Traffic,2015/9/14,N/A,OK,2093,1943,/Users/kkkevinxx/Downloads/Pictures/34.jpg
Coat,stylish coat from China,Clothing,2015/11/14,N/A,OK,316,166,/Users/kkkevinxx/Downloads/Pictures/29.jpg
Coat,stylish coat from China,Clothing,2014/10/7,N/A,OK,299,149,/Users/kkkevinxx/Downloads/Pictures/7.jpg
Bed,full size,Furniture,2015/1/22,N/A,OK,773,623,/Users/kkkevinxx/Downloads/Pictures/9.jpg
iphone,nice phone,Electronics,2015/4/10,N/A,OK,1750,1600,/Users/kkkevinxx/Downloads/Pictures/20.jpg
Frozen Dumplings,home flavor,Food,2015/5/19,N/A,OK,2006,1856,/Users/kkkevinxx/Downloads/Pictures/30.jpg
Huawei phone,best phone,Electronics,2014/7/9,N/A,OK,223,73,/Users/kkkevinxx/Downloads/Pictures/6.jpg
Frozen Dumplings,home flavor,Food,2014/2/28,N/A,OK,554,404,/Users/kkkevinxx/Downloads/Pictures/27.jpg
Organizer,organize your home,Furniture,2014/11/14,N/A,OK,1640,1490,/Users/kkkevinxx/Downloads/Pictures/4.jpg
Frozen Dumplings,home flavor,Food,2015/5/2,N/A,OK,1038,888,/Users/kkkevinxx/Downloads/Pictures/45.jpg
Chair,comfortable,Furniture,2014/4/21,N/A,OK,1076,926,/Users/kkkevinxx/Downloads/Pictures/27.jpg
Bed,full size,Furniture,2015/11/5,N/A,OK,748,598,/Users/kkkevinxx/Downloads/Pictures/23.jpg
Mattress,bouncy,Furniture,2014/6/12,N/A,OK,389,239,/Users/kkkevinxx/Downloads/Pictures/45.jpg
Floor Lamp,good looking,Furniture,2015/7/8,N/A,OK,337,187,/Users/kkkevinxx/Downloads/Pictures/35.jpg
Organizer,organize your home,Furniture,2015/1/8,N/A,OK,1000,850,/Users/kkkevinxx/Downloads/Pictures/41.jpg
Organizer,organize your home,Furniture,2014/11/4,N/A,OK,1983,1833,/Users/kkkevinxx/Downloads/Pictures/28.jpg
Coat,stylish coat from China,Clothing,2014/6/27,N/A,OK,2038,1888,/Users/kkkevinxx/Downloads/Pictures/38.jpg
Coat,stylish coat from China,Clothing,2015/4/29,N/A,OK,1279,1129,/Users/kkkevinxx/Downloads/Pictures/38.jpg
Huawei phone,best phone,Electronics,2014/3/25,N/A,OK,612,462,/Users/kkkevinxx/Downloads/Pictures/36.jpg
Bicycle,really smooth ride experience,Traffic,2014/7/3,N/A,OK,1894,1744,/Users/kkkevinxx/Downloads/Pictures/35.jpg
Humidifier,work well,Electronics,2014/9/15,N/A,OK,531,381,/Users/kkkevinxx/Downloads/Pictures/47.jpg
Organizer,organize your home,Furniture,2014/2/8,N/A,OK,810,660,/Users/kkkevinxx/Downloads/Pictures/16.jpg
Frozen Dumplings,home flavor,Food,2015/10/15,N/A,OK,232,82,/Users/kkkevinxx/Downloads/Pictures/49.jpg
Chair,comfortable,Furniture,2015/6/17,N/A,OK,596,446,/Users/kkkevinxx/Downloads/Pictures/37.jpg
Earphone,good sound,Electronics,2014/8/8,N/A,OK,2099,1949,/Users/kkkevinxx/Downloads/Pictures/31.jpg
Subway Card,semester card,Traffic,2015/6/1,N/A,OK,1841,1691,/Users/kkkevinxx/Downloads/Pictures/23.jpg
Organizer,organize your home,Furniture,2014/7/5,N/A,OK,1660,1510,/Users/kkkevinxx/Downloads/Pictures/47.jpg
Desk,full size,Furniture,2015/5/4,N/A,OK,1378,1228,/Users/kkkevinxx/Downloads/Pictures/28.jpg
Mattress,bouncy,Furniture,2015/9/5,N/A,OK,472,322,/Users/kkkevinxx/Downloads/Pictures/14.jpg
Humidifier,work well,Electronics,2015/4/15,N/A,OK,458,308,/Users/kkkevinxx/Downloads/Pictures/33.jpg
Coat,stylish coat from China,Clothing,2015/9/24,N/A,OK,670,520,/Users/kkkevinxx/Downloads/Pictures/49.jpg
Floor Lamp,good looking,Furniture,2014/4/7,N/A,OK,1448,1298,/Users/kkkevinxx/Downloads/Pictures/43.jpg
BMW vihicle,second hand,Traffic,2014/9/4,N/A,OK,337,187,/Users/kkkevinxx/Downloads/Pictures/45.jpg
Subway Card,semester card,Traffic,2014/3/19,N/A,OK,2008,1858,/Users/kkkevinxx/Downloads/Pictures/38.jpg
Organizer,organize your home,Furniture,2015/7/27,N/A,OK,921,771,/Users/kkkevinxx/Downloads/Pictures/8.jpg
Floor Lamp,good looking,Furniture,2014/7/4,N/A,OK,2000,1850,/Users/kkkevinxx/Downloads/Pictures/37.jpg
Organizer,organize your home,Furniture,2014/7/23,N/A,OK,978,828,/Users/kkkevinxx/Downloads/Pictures/27.jpg
Desk,full size,Furniture,2015/2/19,N/A,OK,618,468,/Users/kkkevinxx/Downloads/Pictures/30.jpg
Scarf,warm you in the cold night,Clothing,2015/5/16,N/A,OK,439,289,/Users/kkkevinxx/Downloads/Pictures/12.jpg
Organizer,organize your home,Furniture,2014/9/12,N/A,OK,1441,1291,/Users/kkkevinxx/Downloads/Pictures/7.jpg
Noodles Sauce,Chinese flavor sauces,Food,2015/7/22,N/A,OK,539,389,/Users/kkkevinxx/Downloads/Pictures/11.jpg
Organizer,organize your home,Furniture,2015/3/23,N/A,OK,1192,1042,/Users/kkkevinxx/Downloads/Pictures/19.jpg
Scarf,warm you in the cold night,Clothing,2015/9/28,N/A,OK,374,224,/Users/kkkevinxx/Downloads/Pictures/21.jpg
Floor Lamp,good looking,Furniture,2015/1/27,N/A,OK,2062,1912,/Users/kkkevinxx/Downloads/Pictures/37.jpg
Coat,stylish coat from China,Clothing,2015/1/17,N/A,OK,1809,1659,/Users/kkkevinxx/Downloads/Pictures/33.jpg
Chair,comfortable,Furniture,2015/5/18,N/A,OK,1461,1311,/Users/kkkevinxx/Downloads/Pictures/2.jpg
Noodles Sauce,Chinese flavor sauces,Food,2014/3/10,N/A,OK,2196,2046,/Users/kkkevinxx/Downloads/Pictures/2.jpg
Humidifier,work well,Electronics,2014/8/3,N/A,OK,963,813,/Users/kkkevinxx/Downloads/Pictures/41.jpg
Bed,full size,Furniture,2015/5/24,N/A,OK,999,849,/Users/kkkevinxx/Downloads/Pictures/13.jpg
Organizer,organize your home,Furniture,2015/10/9,N/A,OK,2112,1962,/Users/kkkevinxx/Downloads/Pictures/26.jpg
Humidifier,work well,Electronics,2014/3/12,N/A,OK,2016,1866,/Users/kkkevinxx/Downloads/Pictures/23.jpg
Chair,comfortable,Furniture,2014/10/18,N/A,OK,536,386,/Users/kkkevinxx/Downloads/Pictures/28.jpg
Mattress,bouncy,Furniture,2015/5/14,N/A,OK,1407,1257,/Users/kkkevinxx/Downloads/Pictures/45.jpg
Bed,full size,Furniture,2015/10/7,N/A,OK,1577,1427,/Users/kkkevinxx/Downloads/Pictures/3.jpg
Coat,stylish coat from China,Clothing,2015/9/8,N/A,OK,1210,1060,/Users/kkkevinxx/Downloads/Pictures/21.jpg
Desk,full size,Furniture,2015/5/17,N/A,OK,319,169,/Users/kkkevinxx/Downloads/Pictures/1.jpg
Floor Lamp,good looking,Furniture,2015/6/14,N/A,OK,417,267,/Users/kkkevinxx/Downloads/Pictures/2.jpg
Bed,full size,Furniture,2014/10/10,N/A,OK,521,371,/Users/kkkevinxx/Downloads/Pictures/43.jpg
Bed,full size,Furniture,2015/10/19,N/A,OK,1025,875,/Users/kkkevinxx/Downloads/Pictures/19.jpg
BMW vihicle,second hand,Traffic,2015/1/25,N/A,OK,509,359,/Users/kkkevinxx/Downloads/Pictures/7.jpg
Coat,stylish coat from China,Clothing,2015/1/27,N/A,OK,758,608,/Users/kkkevinxx/Downloads/Pictures/42.jpg
Leggings,makes your leg looks ever slimmer,Clothing,2014/5/22,N/A,OK,1589,1439,/Users/kkkevinxx/Downloads/Pictures/17.jpg
Floor Lamp,good looking,Furniture,2014/4/14,N/A,OK,1349,1199,/Users/kkkevinxx/Downloads/Pictures/3.jpg
iphone,nice phone,Electronics,2015/1/14,N/A,OK,1956,1806,/Users/kkkevinxx/Downloads/Pictures/47.jpg
Floor Lamp,good looking,Furniture,2014/6/21,N/A,OK,1455,1305,/Users/kkkevinxx/Downloads/Pictures/50.jpg
Humidifier,work well,Electronics,2014/10/5,N/A,OK,467,317,/Users/kkkevinxx/Downloads/Pictures/5.jpg
Floor Lamp,good looking,Furniture,2015/10/20,N/A,OK,325,175,/Users/kkkevinxx/Downloads/Pictures/3.jpg
Frozen Dumplings,home flavor,Food,2014/11/6,N/A,OK,1928,1778,/Users/kkkevinxx/Downloads/Pictures/32.jpg
Floor Lamp,good looking,Furniture,2015/11/28,N/A,OK,401,251,/Users/kkkevinxx/Downloads/Pictures/33.jpg
Bed,full size,Furniture,2015/3/10,N/A,OK,809,659,/Users/kkkevinxx/Downloads/Pictures/18.jpg
Huawei phone,best phone,Electronics,2015/8/26,N/A,OK,1982,1832,/Users/kkkevinxx/Downloads/Pictures/49.jpg
Chair,comfortable,Furniture,2014/3/5,N/A,OK,1468,1318,/Users/kkkevinxx/Downloads/Pictures/11.jpg
Facial cleaser,give you nice touch skin,DailyUse,2015/3/2,N/A,OK,969,819,/Users/kkkevinxx/Downloads/Pictures/48.jpg
Coat,stylish coat from China,Clothing,2015/1/27,N/A,OK,2092,1942,/Users/kkkevinxx/Downloads/Pictures/5.jpg
Frozen Dumplings,home flavor,Food,2014/4/10,N/A,OK,1574,1424,/Users/kkkevinxx/Downloads/Pictures/17.jpg
Leggings,makes your leg looks ever slimmer,Clothing,2015/10/19,N/A,OK,626,476,/Users/kkkevinxx/Downloads/Pictures/25.jpg
Bed,full size,Furniture,2015/2/3,N/A,OK,1618,1468,/Users/kkkevinxx/Downloads/Pictures/17.jpg
Scarf,warm you in the cold night,Clothing,2014/6/19,N/A,OK,1936,1786,/Users/kkkevinxx/Downloads/Pictures/12.jpg
Leggings,makes your leg looks ever slimmer,Clothing,2014/3/25,N/A,OK,796,646,/Users/kkkevinxx/Downloads/Pictures/24.jpg
Bed,full size,Furniture,2014/9/14,N/A,OK,397,247,/Users/kkkevinxx/Downloads/Pictures/41.jpg
Subway Card,semester card,Traffic,2015/7/20,N/A,OK,1894,1744,/Users/kkkevinxx/Downloads/Pictures/12.jpg
Mattress,bouncy,Furniture,2014/1/8,N/A,OK,972,822,/Users/kkkevinxx/Downloads/Pictures/27.jpg
Organizer,organize your home,Furniture,2014/10/28,N/A,OK,1564,1414,/Users/kkkevinxx/Downloads/Pictures/43.jpg
Mattress,bouncy,Furniture,2014/9/9,N/A,OK,642,492,/Users/kkkevinxx/Downloads/Pictures/31.jpg
Facial Lotion, moistrize your skin,DailyUse,2014/8/19,N/A,OK,777,627,/Users/kkkevinxx/Downloads/Pictures/21.jpg
Floor Lamp,good looking,Furniture,2015/8/10,N/A,OK,785,635,/Users/kkkevinxx/Downloads/Pictures/16.jpg
BMW vihicle,second hand,Traffic,2014/2/24,N/A,OK,1532,1382,/Users/kkkevinxx/Downloads/Pictures/17.jpg
Desk,full size,Furniture,2014/6/25,N/A,OK,1821,1671,/Users/kkkevinxx/Downloads/Pictures/23.jpg
Bed,full size,Furniture,2014/2/11,N/A,OK,1798,1648,/Users/kkkevinxx/Downloads/Pictures/45.jpg
Organizer,organize your home,Furniture,2015/4/4,N/A,OK,2000,1850,/Users/kkkevinxx/Downloads/Pictures/44.jpg
Coat,stylish coat from China,Clothing,2015/7/25,N/A,OK,1034,884,/Users/kkkevinxx/Downloads/Pictures/29.jpg
Organizer,organize your home,Furniture,2014/9/28,N/A,OK,827,677,/Users/kkkevinxx/Downloads/Pictures/19.jpg
Facial cleaser,give you nice touch skin,DailyUse,2015/2/13,N/A,OK,1845,1695,/Users/kkkevinxx/Downloads/Pictures/18.jpg
Frozen Dumplings,home flavor,Food,2014/5/13,N/A,OK,2067,1917,/Users/kkkevinxx/Downloads/Pictures/37.jpg
Bed,full size,Furniture,2014/8/17,N/A,OK,1624,1474,/Users/kkkevinxx/Downloads/Pictures/38.jpg
Organizer,organize your home,Furniture,2014/8/25,N/A,OK,1731,1581,/Users/kkkevinxx/Downloads/Pictures/38.jpg
Scarf,warm you in the cold night,Clothing,2014/6/15,N/A,OK,1105,955,/Users/kkkevinxx/Downloads/Pictures/41.jpg
Frozen Dumplings,home flavor,Food,2014/11/5,N/A,OK,796,646,/Users/kkkevinxx/Downloads/Pictures/19.jpg
Mattress,bouncy,Furniture,2015/2/16,N/A,OK,897,747,/Users/kkkevinxx/Downloads/Pictures/31.jpg
Humidifier,work well,Electronics,2015/3/6,N/A,OK,743,593,/Users/kkkevinxx/Downloads/Pictures/9.jpg
Scarf,warm you in the cold night,Clothing,2015/1/13,N/A,OK,2060,1910,/Users/kkkevinxx/Downloads/Pictures/45.jpg
Organizer,organize your home,Furniture,2015/3/3,N/A,OK,2196,2046,/Users/kkkevinxx/Downloads/Pictures/20.jpg
Earphone,good sound,Electronics,2015/5/2,N/A,OK,765,615,/Users/kkkevinxx/Downloads/Pictures/4.jpg
Coat,stylish coat from China,Clothing,2014/9/26,N/A,OK,1194,1044,/Users/kkkevinxx/Downloads/Pictures/41.jpg
Floor Lamp,good looking,Furniture,2015/6/17,N/A,OK,1969,1819,/Users/kkkevinxx/Downloads/Pictures/41.jpg
Chair,comfortable,Furniture,2015/1/28,N/A,OK,1672,1522,/Users/kkkevinxx/Downloads/Pictures/41.jpg
Mattress,bouncy,Furniture,2014/11/15,N/A,OK,881,731,/Users/kkkevinxx/Downloads/Pictures/50.jpg
Coat,stylish coat from China,Clothing,2014/10/1,N/A,OK,844,694,/Users/kkkevinxx/Downloads/Pictures/24.jpg
Earphone,good sound,Electronics,2015/3/18,N/A,OK,1770,1620,/Users/kkkevinxx/Downloads/Pictures/50.jpg
Chair,comfortable,Furniture,2015/6/21,N/A,OK,2143,1993,/Users/kkkevinxx/Downloads/Pictures/6.jpg
Desk,full size,Furniture,2014/8/7,N/A,OK,1374,1224,/Users/kkkevinxx/Downloads/Pictures/7.jpg
Frozen Dumplings,home flavor,Food,2015/2/15,N/A,OK,314,164,/Users/kkkevinxx/Downloads/Pictures/24.jpg
Noodles Sauce,Chinese flavor sauces,Food,2014/11/19,N/A,OK,824,674,/Users/kkkevinxx/Downloads/Pictures/33.jpg
Coat,stylish coat from China,Clothing,2015/6/24,N/A,OK,1123,973,/Users/kkkevinxx/Downloads/Pictures/33.jpg
Facial Lotion, moistrize your skin,DailyUse,2015/3/22,N/A,OK,1586,1436,/Users/kkkevinxx/Downloads/Pictures/42.jpg
Earphone,good sound,Electronics,2014/8/10,N/A,OK,1957,1807,/Users/kkkevinxx/Downloads/Pictures/33.jpg
Leggings,makes your leg looks ever slimmer,Clothing,2015/7/12,N/A,OK,1439,1289,/Users/kkkevinxx/Downloads/Pictures/23.jpg
Earphone,good sound,Electronics,2014/4/24,N/A,OK,1328,1178,/Users/kkkevinxx/Downloads/Pictures/13.jpg
Noodles Sauce,Chinese flavor sauces,Food,2014/8/23,N/A,OK,1988,1838,/Users/kkkevinxx/Downloads/Pictures/24.jpg
Floor Lamp,good looking,Furniture,2014/6/29,N/A,OK,970,820,/Users/kkkevinxx/Downloads/Pictures/42.jpg
Leggings,makes your leg looks ever slimmer,Clothing,2015/5/19,N/A,OK,1595,1445,/Users/kkkevinxx/Downloads/Pictures/14.jpg
Organizer,organize your home,Furniture,2014/2/17,N/A,OK,1863,1713,/Users/kkkevinxx/Downloads/Pictures/28.jpg
Huawei phone,best phone,Electronics,2015/11/24,N/A,OK,953,803,/Users/kkkevinxx/Downloads/Pictures/31.jpg
Frozen Dumplings,home flavor,Food,2015/11/18,N/A,OK,1040,890,/Users/kkkevinxx/Downloads/Pictures/34.jpg
Chair,comfortable,Furniture,2014/9/29,N/A,OK,811,661,/Users/kkkevinxx/Downloads/Pictures/10.jpg
Desk,full size,Furniture,2015/1/29,N/A,OK,1544,1394,/Users/kkkevinxx/Downloads/Pictures/33.jpg
Mattress,bouncy,Furniture,2015/4/29,N/A,OK,565,415,/Users/kkkevinxx/Downloads/Pictures/3.jpg
Mattress,bouncy,Furniture,2015/10/6,N/A,OK,1351,1201,/Users/kkkevinxx/Downloads/Pictures/48.jpg
Frozen Dumplings,home flavor,Food,2015/5/9,N/A,OK,570,420,/Users/kkkevinxx/Downloads/Pictures/35.jpg
Coat,stylish coat from China,Clothing,2015/7/22,N/A,OK,401,251,/Users/kkkevinxx/Downloads/Pictures/7.jpg
Bed,full size,Furniture,2014/10/24,N/A,OK,2148,1998,/Users/kkkevinxx/Downloads/Pictures/44.jpg
Coat,stylish coat from China,Clothing,2015/6/24,N/A,OK,234,84,/Users/kkkevinxx/Downloads/Pictures/45.jpg
Chair,comfortable,Furniture,2015/2/20,N/A,OK,1243,1093,/Users/kkkevinxx/Downloads/Pictures/12.jpg
Chair,comfortable,Furniture,2014/5/26,N/A,OK,1933,1783,/Users/kkkevinxx/Downloads/Pictures/10.jpg
BMW vihicle,second hand,Traffic,2014/6/2,N/A,OK,693,543,/Users/kkkevinxx/Downloads/Pictures/19.jpg
Chair,comfortable,Furniture,2014/3/29,N/A,OK,1281,1131,/Users/kkkevinxx/Downloads/Pictures/2.jpg
Bed,full size,Furniture,2014/2/3,N/A,OK,1938,1788,/Users/kkkevinxx/Downloads/Pictures/5.jpg
Huawei phone,best phone,Electronics,2014/11/29,N/A,OK,1153,1003,/Users/kkkevinxx/Downloads/Pictures/45.jpg
Huawei phone,best phone,Electronics,2015/9/24,N/A,OK,1859,1709,/Users/kkkevinxx/Downloads/Pictures/5.jpg
Organizer,organize your home,Furniture,2015/5/6,N/A,OK,213,63,/Users/kkkevinxx/Downloads/Pictures/3.jpg
iphone,nice phone,Electronics,2014/5/7,N/A,OK,2198,2048,/Users/kkkevinxx/Downloads/Pictures/12.jpg
Mattress,bouncy,Furniture,2015/9/5,N/A,OK,1989,1839,/Users/kkkevinxx/Downloads/Pictures/2.jpg
Chair,comfortable,Furniture,2014/11/3,N/A,OK,1729,1579,/Users/kkkevinxx/Downloads/Pictures/26.jpg
Coat,stylish coat from China,Clothing,2015/5/21,N/A,OK,1327,1177,/Users/kkkevinxx/Downloads/Pictures/30.jpg
iphone,nice phone,Electronics,2015/9/23,N/A,OK,991,841,/Users/kkkevinxx/Downloads/Pictures/22.jpg
Bed,full size,Furniture,2014/1/15,N/A,OK,2093,1943,/Users/kkkevinxx/Downloads/Pictures/31.jpg
Organizer,organize your home,Furniture,2014/2/5,N/A,OK,2008,1858,/Users/kkkevinxx/Downloads/Pictures/39.jpg
Desk,full size,Furniture,2014/8/11,N/A,OK,804,654,/Users/kkkevinxx/Downloads/Pictures/24.jpg
Floor Lamp,good looking,Furniture,2015/4/16,N/A,OK,905,755,/Users/kkkevinxx/Downloads/Pictures/45.jpg
Organizer,organize your home,Furniture,2014/11/7,N/A,OK,1606,1456,/Users/kkkevinxx/Downloads/Pictures/50.jpg
Organizer,organize your home,Furniture,2015/7/2,N/A,OK,1833,1683,/Users/kkkevinxx/Downloads/Pictures/25.jpg
Organizer,organize your home,Furniture,2014/1/10,N/A,OK,701,551,/Users/kkkevinxx/Downloads/Pictures/44.jpg
Facial Lotion, moistrize your skin,DailyUse,2015/7/27,N/A,OK,1991,1841,/Users/kkkevinxx/Downloads/Pictures/32.jpg
Noodles Sauce,Chinese flavor sauces,Food,2014/8/3,N/A,OK,947,797,/Users/kkkevinxx/Downloads/Pictures/25.jpg
Leggings,makes your leg looks ever slimmer,Clothing,2015/2/5,N/A,OK,1878,1728,/Users/kkkevinxx/Downloads/Pictures/10.jpg
Floor Lamp,good looking,Furniture,2014/6/14,N/A,OK,1915,1765,/Users/kkkevinxx/Downloads/Pictures/4.jpg
Chair,comfortable,Furniture,2015/6/26,N/A,OK,2182,2032,/Users/kkkevinxx/Downloads/Pictures/2.jpg
Mattress,bouncy,Furniture,2015/10/13,N/A,OK,1164,1014,/Users/kkkevinxx/Downloads/Pictures/43.jpg
Organizer,organize your home,Furniture,2015/5/18,N/A,OK,935,785,/Users/kkkevinxx/Downloads/Pictures/27.jpg
Organizer,organize your home,Furniture,2014/2/25,N/A,OK,947,797,/Users/kkkevinxx/Downloads/Pictures/21.jpg
Coat,stylish coat from China,Clothing,2015/7/2,N/A,OK,1702,1552,/Users/kkkevinxx/Downloads/Pictures/31.jpg
Chair,comfortable,Furniture,2015/5/5,N/A,OK,921,771,/Users/kkkevinxx/Downloads/Pictures/45.jpg
Coat,stylish coat from China,Clothing,2015/10/25,N/A,OK,1652,1502,/Users/kkkevinxx/Downloads/Pictures/3.jpg
Mattress,bouncy,Furniture,2015/5/9,N/A,OK,1740,1590,/Users/kkkevinxx/Downloads/Pictures/30.jpg
Huawei phone,best phone,Electronics,2015/7/25,N/A,OK,1424,1274,/Users/kkkevinxx/Downloads/Pictures/35.jpg
Coat,stylish coat from China,Clothing,2014/1/20,N/A,OK,654,504,/Users/kkkevinxx/Downloads/Pictures/34.jpg
iphone,nice phone,Electronics,2015/4/4,N/A,OK,602,452,/Users/kkkevinxx/Downloads/Pictures/3.jpg
Floor Lamp,good looking,Furniture,2015/1/29,N/A,OK,424,274,/Users/kkkevinxx/Downloads/Pictures/12.jpg
Subway Card,semester card,Traffic,2014/5/24,N/A,OK,1578,1428,/Users/kkkevinxx/Downloads/Pictures/43.jpg
Bicycle,really smooth ride experience,Traffic,2014/6/2,N/A,OK,972,822,/Users/kkkevinxx/Downloads/Pictures/16.jpg
BMW vihicle,second hand,Traffic,2015/9/3,N/A,OK,368,218,/Users/kkkevinxx/Downloads/Pictures/12.jpg
Mattress,bouncy,Furniture,2014/3/27,N/A,OK,1257,1107,/Users/kkkevinxx/Downloads/Pictures/25.jpg
BMW vihicle,second hand,Traffic,2014/8/16,N/A,OK,1754,1604,/Users/kkkevinxx/Downloads/Pictures/27.jpg
Facial cleaser,give you nice touch skin,DailyUse,2014/10/14,N/A,OK,841,691,/Users/kkkevinxx/Downloads/Pictures/18.jpg
Desk,full size,Furniture,2015/9/6,N/A,OK,1824,1674,/Users/kkkevinxx/Downloads/Pictures/11.jpg
Floor Lamp,good looking,Furniture,2014/5/7,N/A,OK,569,419,/Users/kkkevinxx/Downloads/Pictures/40.jpg
Humidifier,work well,Electronics,2015/8/19,N/A,OK,1629,1479,/Users/kkkevinxx/Downloads/Pictures/49.jpg
Floor Lamp,good looking,Furniture,2015/10/15,N/A,OK,1617,1467,/Users/kkkevinxx/Downloads/Pictures/36.jpg
Floor Lamp,good looking,Furniture,2014/1/13,N/A,OK,1285,1135,/Users/kkkevinxx/Downloads/Pictures/42.jpg
Desk,full size,Furniture,2015/4/25,N/A,OK,2017,1867,/Users/kkkevinxx/Downloads/Pictures/21.jpg
Bed,full size,Furniture,2014/5/21,N/A,OK,339,189,/Users/kkkevinxx/Downloads/Pictures/10.jpg
BMW vihicle,second hand,Traffic,2015/7/21,N/A,OK,1470,1320,/Users/kkkevinxx/Downloads/Pictures/11.jpg
Facial Lotion, moistrize your skin,DailyUse,2014/11/15,N/A,OK,1716,1566,/Users/kkkevinxx/Downloads/Pictures/23.jpg
Frozen Dumplings,home flavor,Food,2014/6/15,N/A,OK,955,805,/Users/kkkevinxx/Downloads/Pictures/21.jpg
Subway Card,semester card,Traffic,2015/7/18,N/A,OK,939,789,/Users/kkkevinxx/Downloads/Pictures/30.jpg
Subway Card,semester card,Traffic,2015/4/20,N/A,OK,1277,1127,/Users/kkkevinxx/Downloads/Pictures/14.jpg
Organizer,organize your home,Furniture,2014/3/24,N/A,OK,1668,1518,/Users/kkkevinxx/Downloads/Pictures/47.jpg
Coat,stylish coat from China,Clothing,2014/3/27,N/A,OK,220,70,/Users/kkkevinxx/Downloads/Pictures/32.jpg
Humidifier,work well,Electronics,2015/8/2,N/A,OK,867,717,/Users/kkkevinxx/Downloads/Pictures/27.jpg
Frozen Dumplings,home flavor,Food,2014/2/18,N/A,OK,1504,1354,/Users/kkkevinxx/Downloads/Pictures/44.jpg
Bicycle,really smooth ride experience,Traffic,2015/5/11,N/A,OK,2132,1982,/Users/kkkevinxx/Downloads/Pictures/29.jpg
Huawei phone,best phone,Electronics,2015/7/23,N/A,OK,2140,1990,/Users/kkkevinxx/Downloads/Pictures/41.jpg
Organizer,organize your home,Furniture,2015/7/19,N/A,OK,1853,1703,/Users/kkkevinxx/Downloads/Pictures/44.jpg
Floor Lamp,good looking,Furniture,2015/7/28,N/A,OK,2168,2018,/Users/kkkevinxx/Downloads/Pictures/6.jpg
Coat,stylish coat from China,Clothing,2014/11/22,N/A,OK,1982,1832,/Users/kkkevinxx/Downloads/Pictures/16.jpg
Desk,full size,Furniture,2015/8/22,N/A,OK,2076,1926,/Users/kkkevinxx/Downloads/Pictures/19.jpg
Earphone,good sound,Electronics,2014/1/11,N/A,OK,1193,1043,/Users/kkkevinxx/Downloads/Pictures/37.jpg
Bed,full size,Furniture,2014/11/14,N/A,OK,408,258,/Users/kkkevinxx/Downloads/Pictures/25.jpg
Organizer,organize your home,Furniture,2015/2/5,N/A,OK,1192,1042,/Users/kkkevinxx/Downloads/Pictures/6.jpg
Facial Lotion, moistrize your skin,DailyUse,2015/4/15,N/A,OK,1294,1144,/Users/kkkevinxx/Downloads/Pictures/42.jpg
Floor Lamp,good looking,Furniture,2015/1/29,N/A,OK,828,678,/Users/kkkevinxx/Downloads/Pictures/8.jpg
Coat,stylish coat from China,Clothing,2015/1/11,N/A,OK,727,577,/Users/kkkevinxx/Downloads/Pictures/17.jpg
BMW vihicle,second hand,Traffic,2015/11/7,N/A,OK,1503,1353,/Users/kkkevinxx/Downloads/Pictures/3.jpg
Bed,full size,Furniture,2015/2/24,N/A,OK,1467,1317,/Users/kkkevinxx/Downloads/Pictures/19.jpg
Mattress,bouncy,Furniture,2014/9/3,N/A,OK,1145,995,/Users/kkkevinxx/Downloads/Pictures/17.jpg
Chair,comfortable,Furniture,2014/1/17,N/A,OK,1468,1318,/Users/kkkevinxx/Downloads/Pictures/34.jpg
Mattress,bouncy,Furniture,2015/3/27,N/A,OK,725,575,/Users/kkkevinxx/Downloads/Pictures/2.jpg
Bed,full size,Furniture,2014/10/28,N/A,OK,1632,1482,/Users/kkkevinxx/Downloads/Pictures/9.jpg
Humidifier,work well,Electronics,2015/8/2,N/A,OK,947,797,/Users/kkkevinxx/Downloads/Pictures/24.jpg
Huawei phone,best phone,Electronics,2015/6/1,N/A,OK,1570,1420,/Users/kkkevinxx/Downloads/Pictures/7.jpg
Leggings,makes your leg looks ever slimmer,Clothing,2014/1/11,N/A,OK,1343,1193,/Users/kkkevinxx/Downloads/Pictures/42.jpg
Coat,stylish coat from China,Clothing,2014/11/3,N/A,OK,882,732,/Users/kkkevinxx/Downloads/Pictures/8.jpg
Leggings,makes your leg looks ever slimmer,Clothing,2015/8/11,N/A,OK,1498,1348,/Users/kkkevinxx/Downloads/Pictures/49.jpg
Bed,full size,Furniture,2014/7/29,N/A,OK,2153,2003,/Users/kkkevinxx/Downloads/Pictures/47.jpg
Chair,comfortable,Furniture,2015/2/19,N/A,OK,625,475,/Users/kkkevinxx/Downloads/Pictures/39.jpg
Humidifier,work well,Electronics,2014/4/9,N/A,OK,619,469,/Users/kkkevinxx/Downloads/Pictures/48.jpg
Desk,full size,Furniture,2015/3/14,N/A,OK,1099,949,/Users/kkkevinxx/Downloads/Pictures/23.jpg
Chair,comfortable,Furniture,2014/3/1,N/A,OK,2005,1855,/Users/kkkevinxx/Downloads/Pictures/46.jpg
Scarf,warm you in the cold night,Clothing,2015/3/21,N/A,OK,1887,1737,/Users/kkkevinxx/Downloads/Pictures/21.jpg
Floor Lamp,good looking,Furniture,2015/2/11,N/A,OK,654,504,/Users/kkkevinxx/Downloads/Pictures/16.jpg
Bed,full size,Furniture,2014/6/25,N/A,OK,1105,955,/Users/kkkevinxx/Downloads/Pictures/31.jpg
Chair,comfortable,Furniture,2014/7/10,N/A,OK,508,358,/Users/kkkevinxx/Downloads/Pictures/22.jpg
Humidifier,work well,Electronics,2014/4/19,N/A,OK,1122,972,/Users/kkkevinxx/Downloads/Pictures/50.jpg
Huawei phone,best phone,Electronics,2015/1/24,N/A,OK,1977,1827,/Users/kkkevinxx/Downloads/Pictures/23.jpg
Huawei phone,best phone,Electronics,2015/5/14,N/A,OK,820,670,/Users/kkkevinxx/Downloads/Pictures/23.jpg
Coat,stylish coat from China,Clothing,2015/9/5,N/A,OK,2068,1918,/Users/kkkevinxx/Downloads/Pictures/13.jpg
Chair,comfortable,Furniture,2015/3/29,N/A,OK,1648,1498,/Users/kkkevinxx/Downloads/Pictures/34.jpg
Organizer,organize your home,Furniture,2014/6/9,N/A,OK,1482,1332,/Users/kkkevinxx/Downloads/Pictures/42.jpg
Bed,full size,Furniture,2015/4/25,N/A,OK,1202,1052,/Users/kkkevinxx/Downloads/Pictures/37.jpg
Floor Lamp,good looking,Furniture,2014/11/19,N/A,OK,597,447,/Users/kkkevinxx/Downloads/Pictures/5.jpg
Coat,stylish coat from China,Clothing,2014/9/20,N/A,OK,1969,1819,/Users/kkkevinxx/Downloads/Pictures/24.jpg
Scarf,warm you in the cold night,Clothing,2014/10/20,N/A,OK,474,324,/Users/kkkevinxx/Downloads/Pictures/41.jpg
Desk,full size,Furniture,2015/10/18,N/A,OK,1802,1652,/Users/kkkevinxx/Downloads/Pictures/19.jpg
Bed,full size,Furniture,2015/9/13,N/A,OK,1109,959,/Users/kkkevinxx/Downloads/Pictures/47.jpg
Noodles Sauce,Chinese flavor sauces,Food,2014/11/4,N/A,OK,529,379,/Users/kkkevinxx/Downloads/Pictures/31.jpg
Chair,comfortable,Furniture,2015/2/18,N/A,OK,1239,1089,/Users/kkkevinxx/Downloads/Pictures/46.jpg
Bed,full size,Furniture,2014/1/6,N/A,OK,1870,1720,/Users/kkkevinxx/Downloads/Pictures/39.jpg
Desk,full size,Furniture,2014/8/3,N/A,OK,1976,1826,/Users/kkkevinxx/Downloads/Pictures/13.jpg
Desk,full size,Furniture,2015/9/6,N/A,OK,1533,1383,/Users/kkkevinxx/Downloads/Pictures/37.jpg
Desk,full size,Furniture,2014/5/22,N/A,OK,503,353,/Users/kkkevinxx/Downloads/Pictures/4.jpg
Bed,full size,Furniture,2014/3/24,N/A,OK,1060,910,/Users/kkkevinxx/Downloads/Pictures/14.jpg
Floor Lamp,good looking,Furniture,2014/11/11,N/A,OK,1910,1760,/Users/kkkevinxx/Downloads/Pictures/15.jpg
BMW vihicle,second hand,Traffic,2014/10/5,N/A,OK,511,361,/Users/kkkevinxx/Downloads/Pictures/13.jpg
Subway Card,semester card,Traffic,2014/11/16,N/A,OK,1072,922,/Users/kkkevinxx/Downloads/Pictures/12.jpg
Huawei phone,best phone,Electronics,2014/1/12,N/A,OK,1660,1510,/Users/kkkevinxx/Downloads/Pictures/16.jpg
Coat,stylish coat from China,Clothing,2015/9/24,N/A,OK,210,60,/Users/kkkevinxx/Downloads/Pictures/27.jpg
iphone,nice phone,Electronics,2014/7/12,N/A,OK,817,667,/Users/kkkevinxx/Downloads/Pictures/28.jpg
Desk,full size,Furniture,2014/6/5,N/A,OK,1455,1305,/Users/kkkevinxx/Downloads/Pictures/28.jpg
Mattress,bouncy,Furniture,2015/11/15,N/A,OK,773,623,/Users/kkkevinxx/Downloads/Pictures/32.jpg
Huawei phone,best phone,Electronics,2015/9/23,N/A,OK,1348,1198,/Users/kkkevinxx/Downloads/Pictures/23.jpg
Bicycle,really smooth ride experience,Traffic,2014/1/14,N/A,OK,738,588,/Users/kkkevinxx/Downloads/Pictures/15.jpg
Floor Lamp,good looking,Furniture,2014/9/14,N/A,OK,1792,1642,/Users/kkkevinxx/Downloads/Pictures/16.jpg
Floor Lamp,good looking,Furniture,2015/7/22,N/A,OK,1390,1240,/Users/kkkevinxx/Downloads/Pictures/9.jpg
Humidifier,work well,Electronics,2014/10/21,N/A,OK,1428,1278,/Users/kkkevinxx/Downloads/Pictures/30.jpg
Chair,comfortable,Furniture,2015/4/8,N/A,OK,1380,1230,/Users/kkkevinxx/Downloads/Pictures/32.jpg
Bed,full size,Furniture,2014/3/28,N/A,OK,871,721,/Users/kkkevinxx/Downloads/Pictures/50.jpg
Floor Lamp,good looking,Furniture,2015/3/12,N/A,OK,1776,1626,/Users/kkkevinxx/Downloads/Pictures/15.jpg
iphone,nice phone,Electronics,2015/6/20,N/A,OK,592,442,/Users/kkkevinxx/Downloads/Pictures/39.jpg
Facial cleaser,give you nice touch skin,DailyUse,2015/10/9,N/A,OK,2034,1884,/Users/kkkevinxx/Downloads/Pictures/21.jpg
Chair,comfortable,Furniture,2015/2/9,N/A,OK,1551,1401,/Users/kkkevinxx/Downloads/Pictures/13.jpg
Mattress,bouncy,Furniture,2015/6/20,N/A,OK,1096,946,/Users/kkkevinxx/Downloads/Pictures/25.jpg
Bed,full size,Furniture,2014/5/2,N/A,OK,1915,1765,/Users/kkkevinxx/Downloads/Pictures/2.jpg
Bicycle,really smooth ride experience,Traffic,2015/5/13,N/A,OK,2180,2030,/Users/kkkevinxx/Downloads/Pictures/15.jpg
BMW vihicle,second hand,Traffic,2015/7/8,N/A,OK,395,245,/Users/kkkevinxx/Downloads/Pictures/22.jpg
Scarf,warm you in the cold night,Clothing,2014/3/10,N/A,OK,1727,1577,/Users/kkkevinxx/Downloads/Pictures/26.jpg
Organizer,organize your home,Furniture,2014/2/13,N/A,OK,1843,1693,/Users/kkkevinxx/Downloads/Pictures/20.jpg
Floor Lamp,good looking,Furniture,2014/7/6,N/A,OK,1822,1672,/Users/kkkevinxx/Downloads/Pictures/8.jpg
Desk,full size,Furniture,2014/2/10,N/A,OK,1809,1659,/Users/kkkevinxx/Downloads/Pictures/50.jpg
BMW vihicle,second hand,Traffic,2014/8/19,N/A,OK,1157,1007,/Users/kkkevinxx/Downloads/Pictures/45.jpg
Facial Lotion, moistrize your skin,DailyUse,2014/7/12,N/A,OK,1745,1595,/Users/kkkevinxx/Downloads/Pictures/15.jpg
Desk,full size,Furniture,2014/2/3,N/A,OK,330,180,/Users/kkkevinxx/Downloads/Pictures/25.jpg
Frozen Dumplings,home flavor,Food,2014/6/20,N/A,OK,1506,1356,/Users/kkkevinxx/Downloads/Pictures/50.jpg
Chair,comfortable,Furniture,2015/11/13,N/A,OK,935,785,/Users/kkkevinxx/Downloads/Pictures/12.jpg
Desk,full size,Furniture,2014/2/8,N/A,OK,609,459,/Users/kkkevinxx/Downloads/Pictures/2.jpg
BMW vihicle,second hand,Traffic,2014/8/27,N/A,OK,462,312,/Users/kkkevinxx/Downloads/Pictures/38.jpg
Noodles Sauce,Chinese flavor sauces,Food,2014/9/2,N/A,OK,587,437,/Users/kkkevinxx/Downloads/Pictures/47.jpg
iphone,nice phone,Electronics,2014/8/24,N/A,OK,573,423,/Users/kkkevinxx/Downloads/Pictures/21.jpg
Huawei phone,best phone,Electronics,2014/7/4,N/A,OK,1457,1307,/Users/kkkevinxx/Downloads/Pictures/19.jpg
Noodles Sauce,Chinese flavor sauces,Food,2014/11/23,N/A,OK,764,614,/Users/kkkevinxx/Downloads/Pictures/9.jpg
Bed,full size,Furniture,2014/1/7,N/A,OK,2047,1897,/Users/kkkevinxx/Downloads/Pictures/50.jpg
Mattress,bouncy,Furniture,2015/6/16,N/A,OK,847,697,/Users/kkkevinxx/Downloads/Pictures/23.jpg
Bed,full size,Furniture,2015/10/26,N/A,OK,524,374,/Users/kkkevinxx/Downloads/Pictures/40.jpg
iphone,nice phone,Electronics,2015/2/7,N/A,OK,2001,1851,/Users/kkkevinxx/Downloads/Pictures/15.jpg
Bed,full size,Furniture,2015/9/6,N/A,OK,2017,1867,/Users/kkkevinxx/Downloads/Pictures/19.jpg
iphone,nice phone,Electronics,2014/5/3,N/A,OK,1419,1269,/Users/kkkevinxx/Downloads/Pictures/23.jpg
Coat,stylish coat from China,Clothing,2015/10/10,N/A,OK,758,608,/Users/kkkevinxx/Downloads/Pictures/38.jpg
Noodles Sauce,Chinese flavor sauces,Food,2015/1/2,N/A,OK,1824,1674,/Users/kkkevinxx/Downloads/Pictures/20.jpg
Mattress,bouncy,Furniture,2014/1/13,N/A,OK,537,387,/Users/kkkevinxx/Downloads/Pictures/24.jpg
Desk,full size,Furniture,2014/7/9,N/A,OK,210,60,/Users/kkkevinxx/Downloads/Pictures/37.jpg
Subway Card,semester card,Traffic,2015/6/11,N/A,OK,1700,1550,/Users/kkkevinxx/Downloads/Pictures/39.jpg
Earphone,good sound,Electronics,2015/1/5,N/A,OK,337,187,/Users/kkkevinxx/Downloads/Pictures/44.jpg
Desk,full size,Furniture,2015/3/18,N/A,OK,1173,1023,/Users/kkkevinxx/Downloads/Pictures/23.jpg
Coat,stylish coat from China,Clothing,2014/10/21,N/A,OK,456,306,/Users/kkkevinxx/Downloads/Pictures/48.jpg
Mattress,bouncy,Furniture,2014/6/14,N/A,OK,282,132,/Users/kkkevinxx/Downloads/Pictures/42.jpg
Facial Lotion, moistrize your skin,DailyUse,2015/2/5,N/A,OK,1752,1602,/Users/kkkevinxx/Downloads/Pictures/50.jpg
Organizer,organize your home,Furniture,2015/5/27,N/A,OK,1275,1125,/Users/kkkevinxx/Downloads/Pictures/46.jpg
Coat,stylish coat from China,Clothing,2015/9/27,N/A,OK,1881,1731,/Users/kkkevinxx/Downloads/Pictures/18.jpg
Organizer,organize your home,Furniture,2014/8/8,N/A,OK,1625,1475,/Users/kkkevinxx/Downloads/Pictures/36.jpg
Humidifier,work well,Electronics,2015/1/4,N/A,OK,1802,1652,/Users/kkkevinxx/Downloads/Pictures/43.jpg
Mattress,bouncy,Furniture,2015/5/17,N/A,OK,1192,1042,/Users/kkkevinxx/Downloads/Pictures/33.jpg
Desk,full size,Furniture,2014/5/15,N/A,OK,903,753,/Users/kkkevinxx/Downloads/Pictures/8.jpg
Floor Lamp,good looking,Furniture,2014/11/1,N/A,OK,1369,1219,/Users/kkkevinxx/Downloads/Pictures/31.jpg
Organizer,organize your home,Furniture,2014/6/18,N/A,OK,1106,956,/Users/kkkevinxx/Downloads/Pictures/31.jpg
iphone,nice phone,Electronics,2015/8/10,N/A,OK,1232,1082,/Users/kkkevinxx/Downloads/Pictures/12.jpg
Leggings,makes your leg looks ever slimmer,Clothing,2014/9/23,N/A,OK,1319,1169,/Users/kkkevinxx/Downloads/Pictures/22.jpg
Floor Lamp,good looking,Furniture,2014/8/1,N/A,OK,1596,1446,/Users/kkkevinxx/Downloads/Pictures/38.jpg
Organizer,organize your home,Furniture,2014/7/15,N/A,OK,1152,1002,/Users/kkkevinxx/Downloads/Pictures/31.jpg
Facial Lotion, moistrize your skin,DailyUse,2015/8/3,N/A,OK,1690,1540,/Users/kkkevinxx/Downloads/Pictures/35.jpg
Subway Card,semester card,Traffic,2014/10/17,N/A,OK,1383,1233,/Users/kkkevinxx/Downloads/Pictures/32.jpg
Floor Lamp,good looking,Furniture,2014/9/4,N/A,OK,904,754,/Users/kkkevinxx/Downloads/Pictures/14.jpg
BMW vihicle,second hand,Traffic,2014/8/19,N/A,OK,2083,1933,/Users/kkkevinxx/Downloads/Pictures/31.jpg
Mattress,bouncy,Furniture,2015/5/22,N/A,OK,1734,1584,/Users/kkkevinxx/Downloads/Pictures/41.jpg
Organizer,organize your home,Furniture,2014/9/2,N/A,OK,1727,1577,/Users/kkkevinxx/Downloads/Pictures/35.jpg
Organizer,organize your home,Furniture,2014/7/18,N/A,OK,1689,1539,/Users/kkkevinxx/Downloads/Pictures/7.jpg
Facial Lotion, moistrize your skin,DailyUse,2015/2/9,N/A,OK,1972,1822,/Users/kkkevinxx/Downloads/Pictures/35.jpg
Chair,comfortable,Furniture,2014/5/8,N/A,OK,1462,1312,/Users/kkkevinxx/Downloads/Pictures/1.jpg
Bed,full size,Furniture,2015/1/22,N/A,OK,1025,875,/Users/kkkevinxx/Downloads/Pictures/3.jpg
Coat,stylish coat from China,Clothing,2014/2/13,N/A,OK,2176,2026,/Users/kkkevinxx/Downloads/Pictures/23.jpg
Coat,stylish coat from China,Clothing,2014/3/17,N/A,OK,1755,1605,/Users/kkkevinxx/Downloads/Pictures/9.jpg
iphone,nice phone,Electronics,2015/7/3,N/A,OK,1931,1781,/Users/kkkevinxx/Downloads/Pictures/34.jpg
Bed,full size,Furniture,2015/5/24,N/A,OK,866,716,/Users/kkkevinxx/Downloads/Pictures/23.jpg
Organizer,organize your home,Furniture,2015/1/10,N/A,OK,1272,1122,/Users/kkkevinxx/Downloads/Pictures/7.jpg
BMW vihicle,second hand,Traffic,2015/11/23,N/A,OK,504,354,/Users/kkkevinxx/Downloads/Pictures/16.jpg
Earphone,good sound,Electronics,2014/3/23,N/A,OK,469,319,/Users/kkkevinxx/Downloads/Pictures/11.jpg
Organizer,organize your home,Furniture,2014/8/3,N/A,OK,1731,1581,/Users/kkkevinxx/Downloads/Pictures/4.jpg
Organizer,organize your home,Furniture,2015/11/15,N/A,OK,785,635,/Users/kkkevinxx/Downloads/Pictures/20.jpg
iphone,nice phone,Electronics,2015/4/9,N/A,OK,229,79,/Users/kkkevinxx/Downloads/Pictures/38.jpg
Huawei phone,best phone,Electronics,2015/4/11,N/A,OK,1059,909,/Users/kkkevinxx/Downloads/Pictures/28.jpg
BMW vihicle,second hand,Traffic,2014/2/4,N/A,OK,530,380,/Users/kkkevinxx/Downloads/Pictures/6.jpg
Organizer,organize your home,Furniture,2014/4/26,N/A,OK,2058,1908,/Users/kkkevinxx/Downloads/Pictures/12.jpg
Organizer,organize your home,Furniture,2014/9/21,N/A,OK,1876,1726,/Users/kkkevinxx/Downloads/Pictures/26.jpg
Floor Lamp,good looking,Furniture,2014/11/19,N/A,OK,2121,1971,/Users/kkkevinxx/Downloads/Pictures/7.jpg
Noodles Sauce,Chinese flavor sauces,Food,2014/6/19,N/A,OK,611,461,/Users/kkkevinxx/Downloads/Pictures/16.jpg
Organizer,organize your home,Furniture,2014/3/22,N/A,OK,592,442,/Users/kkkevinxx/Downloads/Pictures/17.jpg
Organizer,organize your home,Furniture,2014/2/12,N/A,OK,708,558,/Users/kkkevinxx/Downloads/Pictures/6.jpg
Chair,comfortable,Furniture,2015/2/25,N/A,OK,484,334,/Users/kkkevinxx/Downloads/Pictures/7.jpg
Desk,full size,Furniture,2014/9/28,N/A,OK,1684,1534,/Users/kkkevinxx/Downloads/Pictures/33.jpg
Earphone,good sound,Electronics,2014/11/23,N/A,OK,691,541,/Users/kkkevinxx/Downloads/Pictures/8.jpg
Floor Lamp,good looking,Furniture,2015/8/10,N/A,OK,1752,1602,/Users/kkkevinxx/Downloads/Pictures/35.jpg
iphone,nice phone,Electronics,2014/8/24,N/A,OK,846,696,/Users/kkkevinxx/Downloads/Pictures/11.jpg
Chair,comfortable,Furniture,2015/11/6,N/A,OK,1579,1429,/Users/kkkevinxx/Downloads/Pictures/13.jpg
Bed,full size,Furniture,2015/6/21,N/A,OK,699,549,/Users/kkkevinxx/Downloads/Pictures/17.jpg
Bed,full size,Furniture,2014/4/12,N/A,OK,477,327,/Users/kkkevinxx/Downloads/Pictures/47.jpg
Frozen Dumplings,home flavor,Food,2014/1/2,N/A,OK,547,397,/Users/kkkevinxx/Downloads/Pictures/34.jpg
BMW vihicle,second hand,Traffic,2014/11/23,N/A,OK,272,122,/Users/kkkevinxx/Downloads/Pictures/28.jpg
Subway Card,semester card,Traffic,2014/7/25,N/A,OK,1877,1727,/Users/kkkevinxx/Downloads/Pictures/5.jpg
Desk,full size,Furniture,2015/2/24,N/A,OK,402,252,/Users/kkkevinxx/Downloads/Pictures/37.jpg
Noodles Sauce,Chinese flavor sauces,Food,2014/9/5,N/A,OK,1942,1792,/Users/kkkevinxx/Downloads/Pictures/5.jpg
BMW vihicle,second hand,Traffic,2014/3/25,N/A,OK,1113,963,/Users/kkkevinxx/Downloads/Pictures/50.jpg
iphone,nice phone,Electronics,2014/11/4,N/A,OK,474,324,/Users/kkkevinxx/Downloads/Pictures/4.jpg
Mattress,bouncy,Furniture,2014/3/27,N/A,OK,1796,1646,/Users/kkkevinxx/Downloads/Pictures/23.jpg
Bicycle,really smooth ride experience,Traffic,2014/11/16,N/A,OK,1185,1035,/Users/kkkevinxx/Downloads/Pictures/29.jpg
Bed,full size,Furniture,2015/8/1,N/A,OK,678,528,/Users/kkkevinxx/Downloads/Pictures/35.jpg
Subway Card,semester card,Traffic,2014/10/1,N/A,OK,1053,903,/Users/kkkevinxx/Downloads/Pictures/46.jpg
Frozen Dumplings,home flavor,Food,2015/9/19,N/A,OK,2168,2018,/Users/kkkevinxx/Downloads/Pictures/42.jpg
Bed,full size,Furniture,2014/2/9,N/A,OK,729,579,/Users/kkkevinxx/Downloads/Pictures/19.jpg
Chair,comfortable,Furniture,2014/4/26,N/A,OK,1180,1030,/Users/kkkevinxx/Downloads/Pictures/45.jpg
Organizer,organize your home,Furniture,2014/5/2,N/A,OK,1614,1464,/Users/kkkevinxx/Downloads/Pictures/20.jpg
Bed,full size,Furniture,2014/11/19,N/A,OK,1708,1558,/Users/kkkevinxx/Downloads/Pictures/15.jpg
Subway Card,semester card,Traffic,2014/2/20,N/A,OK,1349,1199,/Users/kkkevinxx/Downloads/Pictures/46.jpg
BMW vihicle,second hand,Traffic,2014/6/12,N/A,OK,1864,1714,/Users/kkkevinxx/Downloads/Pictures/50.jpg
Bed,full size,Furniture,2014/6/14,N/A,OK,1590,1440,/Users/kkkevinxx/Downloads/Pictures/29.jpg
Leggings,makes your leg looks ever slimmer,Clothing,2014/6/14,N/A,OK,1368,1218,/Users/kkkevinxx/Downloads/Pictures/15.jpg
Humidifier,work well,Electronics,2014/11/25,N/A,OK,1982,1832,/Users/kkkevinxx/Downloads/Pictures/45.jpg
Bicycle,really smooth ride experience,Traffic,2015/1/20,N/A,OK,325,175,/Users/kkkevinxx/Downloads/Pictures/30.jpg
Organizer,organize your home,Furniture,2014/10/26,N/A,OK,244,94,/Users/kkkevinxx/Downloads/Pictures/49.jpg
Organizer,organize your home,Furniture,2014/9/10,N/A,OK,1768,1618,/Users/kkkevinxx/Downloads/Pictures/2.jpg
Bed,full size,Furniture,2014/1/9,N/A,OK,208,58,/Users/kkkevinxx/Downloads/Pictures/16.jpg
Earphone,good sound,Electronics,2014/7/25,N/A,OK,1163,1013,/Users/kkkevinxx/Downloads/Pictures/36.jpg
BMW vihicle,second hand,Traffic,2014/11/21,N/A,OK,1543,1393,/Users/kkkevinxx/Downloads/Pictures/47.jpg
Coat,stylish coat from China,Clothing,2014/1/27,N/A,OK,1593,1443,/Users/kkkevinxx/Downloads/Pictures/49.jpg
Floor Lamp,good looking,Furniture,2015/2/16,N/A,OK,655,505,/Users/kkkevinxx/Downloads/Pictures/46.jpg
Coat,stylish coat from China,Clothing,2014/5/15,N/A,OK,1924,1774,/Users/kkkevinxx/Downloads/Pictures/6.jpg
Organizer,organize your home,Furniture,2015/4/18,N/A,OK,2059,1909,/Users/kkkevinxx/Downloads/Pictures/41.jpg
Desk,full size,Furniture,2014/7/21,N/A,OK,674,524,/Users/kkkevinxx/Downloads/Pictures/6.jpg
Huawei phone,best phone,Electronics,2014/11/27,N/A,OK,1148,998,/Users/kkkevinxx/Downloads/Pictures/34.jpg
Scarf,warm you in the cold night,Clothing,2014/5/15,N/A,OK,738,588,/Users/kkkevinxx/Downloads/Pictures/33.jpg
Frozen Dumplings,home flavor,Food,2014/8/10,N/A,OK,936,786,/Users/kkkevinxx/Downloads/Pictures/20.jpg
Floor Lamp,good looking,Furniture,2014/1/17,N/A,OK,1427,1277,/Users/kkkevinxx/Downloads/Pictures/2.jpg
Desk,full size,Furniture,2015/8/15,N/A,OK,897,747,/Users/kkkevinxx/Downloads/Pictures/44.jpg
Chair,comfortable,Furniture,2014/11/17,N/A,OK,600,450,/Users/kkkevinxx/Downloads/Pictures/47.jpg
Bed,full size,Furniture,2014/9/21,N/A,OK,1506,1356,/Users/kkkevinxx/Downloads/Pictures/41.jpg
Chair,comfortable,Furniture,2015/2/9,N/A,OK,825,675,/Users/kkkevinxx/Downloads/Pictures/49.jpg
Floor Lamp,good looking,Furniture,2014/3/9,N/A,OK,1545,1395,/Users/kkkevinxx/Downloads/Pictures/36.jpg
Desk,full size,Furniture,2015/7/10,N/A,OK,1709,1559,/Users/kkkevinxx/Downloads/Pictures/36.jpg
Bed,full size,Furniture,2015/4/19,N/A,OK,583,433,/Users/kkkevinxx/Downloads/Pictures/5.jpg
Desk,full size,Furniture,2014/10/8,N/A,OK,1588,1438,/Users/kkkevinxx/Downloads/Pictures/28.jpg
iphone,nice phone,Electronics,2014/10/21,N/A,OK,352,202,/Users/kkkevinxx/Downloads/Pictures/44.jpg